# Fill cell instances added to the design:
Net=__spacer_nc_0 Instance=FILL_0_0_0 Cell=FILL Pin=-
Net=__spacer_nc_1 Instance=FILL_0_0_1 Cell=FILL Pin=-
Net=__spacer_nc_2 Instance=FILL_0_0_2 Cell=FILL Pin=-
Net=__spacer_nc_3 Instance=FILL_0_1_0 Cell=FILL Pin=-
Net=__spacer_nc_4 Instance=FILL_0_1_1 Cell=FILL Pin=-
Net=__spacer_nc_5 Instance=FILL_0_1_2 Cell=FILL Pin=-
Net=__spacer_nc_6 Instance=FILL_1_1 Cell=FILL Pin=-
Net=__spacer_nc_7 Instance=FILL_1_0_0 Cell=FILL Pin=-
Net=__spacer_nc_8 Instance=FILL_1_0_1 Cell=FILL Pin=-
Net=__spacer_nc_9 Instance=FILL_1_0_2 Cell=FILL Pin=-
Net=__spacer_nc_10 Instance=FILL_1_1_0 Cell=FILL Pin=-
Net=__spacer_nc_11 Instance=FILL_1_1_1 Cell=FILL Pin=-
Net=__spacer_nc_12 Instance=FILL_1_1_2 Cell=FILL Pin=-
Net=__spacer_nc_13 Instance=FILL_2_1 Cell=FILL Pin=-
Net=__spacer_nc_14 Instance=FILL_2_0_0 Cell=FILL Pin=-
Net=__spacer_nc_15 Instance=FILL_2_0_1 Cell=FILL Pin=-
Net=__spacer_nc_16 Instance=FILL_2_0_2 Cell=FILL Pin=-
Net=__spacer_nc_17 Instance=FILL_2_1_0 Cell=FILL Pin=-
Net=__spacer_nc_18 Instance=FILL_2_1_1 Cell=FILL Pin=-
Net=__spacer_nc_19 Instance=FILL_2_1_2 Cell=FILL Pin=-
Net=__spacer_nc_20 Instance=FILL_3_0_0 Cell=FILL Pin=-
Net=__spacer_nc_21 Instance=FILL_3_0_1 Cell=FILL Pin=-
Net=__spacer_nc_22 Instance=FILL_3_0_2 Cell=FILL Pin=-
Net=__spacer_nc_23 Instance=FILL_3_1_0 Cell=FILL Pin=-
Net=__spacer_nc_24 Instance=FILL_3_1_1 Cell=FILL Pin=-
Net=__spacer_nc_25 Instance=FILL_3_1_2 Cell=FILL Pin=-
Net=__spacer_nc_26 Instance=FILL_4_1 Cell=FILL Pin=-
